EESchema Schematic File Version 4
EELAYER 30 0
EELAYER END
$Descr A4 11693 8268
encoding utf-8
Sheet 3 3
Title ""
Date ""
Rev ""
Comp ""
Comment1 ""
Comment2 ""
Comment3 ""
Comment4 ""
$EndDescr
$Comp
L max708:MAX708CPA+ U6
U 1 1 606EDC64
P 3200 3200
F 0 "U6" H 4000 3587 60  0000 C CNN
F 1 "MAX708CPA+" H 4000 3481 60  0000 C CNN
F 2 "21-0043D_8_MXM" H 4000 3440 60  0001 C CNN
F 3 "" H 3200 3200 60  0000 C CNN
	1    3200 3200
	1    0    0    -1  
$EndComp
$Comp
L Switch:SW_Push SW1
U 1 1 606EE867
P 2300 3200
F 0 "SW1" H 2300 3485 50  0000 C CNN
F 1 "SW_Push" H 2300 3394 50  0000 C CNN
F 2 "" H 2300 3400 50  0001 C CNN
F 3 "~" H 2300 3400 50  0001 C CNN
	1    2300 3200
	1    0    0    -1  
$EndComp
$Comp
L power:GND #PWR020
U 1 1 606EEF75
P 2100 4300
F 0 "#PWR020" H 2100 4050 50  0001 C CNN
F 1 "GND" H 2105 4127 50  0000 C CNN
F 2 "" H 2100 4300 50  0001 C CNN
F 3 "" H 2100 4300 50  0001 C CNN
	1    2100 4300
	1    0    0    -1  
$EndComp
Wire Wire Line
	3200 3200 2500 3200
Wire Wire Line
	2100 4300 2100 4000
Wire Wire Line
	3200 4000 2100 4000
Connection ~ 2100 4000
Wire Wire Line
	2100 4000 2100 3200
$Comp
L power:VCC #PWR021
U 1 1 606F1269
P 2800 3650
F 0 "#PWR021" H 2800 3500 50  0001 C CNN
F 1 "VCC" H 2815 3823 50  0000 C CNN
F 2 "" H 2800 3650 50  0001 C CNN
F 3 "" H 2800 3650 50  0001 C CNN
	1    2800 3650
	1    0    0    -1  
$EndComp
Wire Wire Line
	3200 3800 3000 3800
Wire Wire Line
	2800 3800 2800 3650
Wire Wire Line
	3200 3300 3000 3300
Wire Wire Line
	3000 3300 3000 3800
Connection ~ 3000 3800
Wire Wire Line
	3000 3800 2800 3800
Text GLabel 5350 3300 2    50   Input ~ 0
~RES
Wire Wire Line
	5350 3300 4800 3300
$Comp
L Device:R R1
U 1 1 606F1ED5
P 4900 3700
F 0 "R1" H 4970 3746 50  0000 L CNN
F 1 "R" H 4970 3655 50  0000 L CNN
F 2 "" V 4830 3700 50  0001 C CNN
F 3 "~" H 4900 3700 50  0001 C CNN
	1    4900 3700
	1    0    0    -1  
$EndComp
$Comp
L Device:LED D1
U 1 1 606F2B92
P 5050 4050
F 0 "D1" H 5043 4267 50  0000 C CNN
F 1 "LED" H 5043 4176 50  0000 C CNN
F 2 "" H 5050 4050 50  0001 C CNN
F 3 "~" H 5050 4050 50  0001 C CNN
	1    5050 4050
	1    0    0    -1  
$EndComp
Wire Wire Line
	4800 3400 4900 3400
Wire Wire Line
	4900 3400 4900 3550
Wire Wire Line
	4900 3850 4900 4050
$Comp
L power:VCC #PWR022
U 1 1 606F375C
P 5350 4000
F 0 "#PWR022" H 5350 3850 50  0001 C CNN
F 1 "VCC" H 5365 4173 50  0000 C CNN
F 2 "" H 5350 4000 50  0001 C CNN
F 3 "" H 5350 4000 50  0001 C CNN
	1    5350 4000
	1    0    0    -1  
$EndComp
Wire Wire Line
	5350 4000 5350 4050
Wire Wire Line
	5350 4050 5200 4050
NoConn ~ 4800 3200
$EndSCHEMATC
